20

4 6
9
1 3
1 0
3 3
2 2
0 0
2 5
1 2
2 1
1 5
7 156

3 20
1
2 0
27 14

4 4
9
2 0
0 3
3 1
2 0
2 0
2 3
0 2
0 2
2 2
90 85

4 3
8
3 1
2 0
3 2
3 0
2 0
0 2
2 2
1 2
56 29

11 16
3
1 2
10 3
8 15
8 109

3 16
6
2 11
0 10
2 1
1 4
2 4
0 9
99 136

7 16
1
0 15
78 99

14 7
5
0 4
10 2
5 6
9 1
3 5
14 163

19 17
2
14 15
12 16
26 157

3 13
6
0 3
2 12
0 7
2 12
2 1
1 3
94 106

18 14
6
4 2
17 8
3 0
1 1
3 7
15 12
10 54

18 18
9
5 5
14 6
10 13
5 1
10 14
14 4
7 11
7 16
12 11
65 96

14 14
10
2 8
11 7
4 11
9 1
12 5
3 10
0 1
4 10
5 7
4 1
40 69

10 6
7
9 3
4 1
5 3
0 5
0 4
3 0
0 4
23 109

19 6
8
15 4
7 3
3 3
13 3
0 2
9 5
7 0
14 3
8 185

16 13
1
6 2
61 96

1 13
3
0 12
0 8
0 0
3 45

3 3
1
2 0
54 52

4 19
6
2 8
1 14
3 12
3 16
2 15
2 18
76 46

9 17
2
0 16
1 4
87 20
