20

18 17
5
5 11
9 4
5 10
0 0
10 1
99 22

12 17
8
9 10
1 8
0 9
0 16
11 8
4 7
9 9
10 7
1 76

15 7
2
5 1
0 4
30 97

13 6
7
6 4
6 3
7 3
7 3
11 4
2 1
1 5
3 128

3 12
2
1 7
1 8
51 189

13 4
1
7 0
32 28

14 5
4
6 2
9 3
9 3
9 0
54 193

13 6
6
6 1
3 2
0 4
6 3
2 3
9 0
54 157

4 7
6
2 5
1 1
0 4
1 6
2 6
1 0
94 39

12 12
1
9 4
100 68

19 10
4
18 4
15 5
15 8
7 9
48 111

3 12
1
1 6
2 198

10 19
9
8 12
4 2
4 4
4 17
5 16
5 13
9 0
8 16
4 2
34 194

19 5
2
17 4
3 4
17 184

13 1
4
10 0
10 0
9 0
3 0
20 172

9 12
5
1 10
1 4
7 6
5 6
1 10
69 40

4 3
5
3 2
2 0
2 0
3 0
0 0
57 134

1 19
6
0 4
0 1
0 0
0 10
0 12
0 0
2 64

6 17
4
4 6
3 15
0 6
2 1
11 141

13 19
3
3 9
10 16
1 16
73 198
