*** Life<ConwayCell> 10x11 ***

Generation = 0, Population = 11.
......*....
...........
...........
.......*...
*..........
.*.........
...........
......*.*..
*.*.......*
........**.

Generation = 1, Population = 3.
...........
...........
...........
...........
...........
...........
...........
...........
.......**..
.........*.

Generation = 2, Population = 2.
...........
...........
...........
...........
...........
...........
...........
...........
........*..
........*..

Generation = 3, Population = 0.
...........
...........
...........
...........
...........
...........
...........
...........
...........
...........

Generation = 4, Population = 0.
...........
...........
...........
...........
...........
...........
...........
...........
...........
...........

Generation = 5, Population = 0.
...........
...........
...........
...........
...........
...........
...........
...........
...........
...........

Generation = 6, Population = 0.
...........
...........
...........
...........
...........
...........
...........
...........
...........
...........

Generation = 7, Population = 0.
...........
...........
...........
...........
...........
...........
...........
...........
...........
...........

*** Life<ConwayCell> 12x15 ***

Generation = 0, Population = 10.
...............
..*...........*
...............
...............
....*..........
..........*.*..
.......*.......
...............
.......*...*...
*..............
...............
.............*.

Generation = 1, Population = 0.
...............
...............
...............
...............
...............
...............
...............
...............
...............
...............
...............
...............

Generation = 2, Population = 0.
...............
...............
...............
...............
...............
...............
...............
...............
...............
...............
...............
...............

Generation = 3, Population = 0.
...............
...............
...............
...............
...............
...............
...............
...............
...............
...............
...............
...............

Generation = 4, Population = 0.
...............
...............
...............
...............
...............
...............
...............
...............
...............
...............
...............
...............

Generation = 5, Population = 0.
...............
...............
...............
...............
...............
...............
...............
...............
...............
...............
...............
...............

*** Life<ConwayCell> 11x5 ***

Generation = 0, Population = 14.
.....
.*.*.
.***.
.....
*....
.*.*.
.....
....*
....*
...**
..*.*

Generation = 2, Population = 7.
.....
.....
**.*.
.**..
.....
.....
.....
.....
.....
...**
.....

*** Life<ConwayCell> 5x15 ***

Generation = 0, Population = 6.
......*........
...........*...
......*...*....
.*.............
........*......

Generation = 1, Population = 0.
...............
...............
...............
...............
...............

Generation = 2, Population = 0.
...............
...............
...............
...............
...............

Generation = 3, Population = 0.
...............
...............
...............
...............
...............

Generation = 4, Population = 0.
...............
...............
...............
...............
...............

*** Life<ConwayCell> 14x10 ***

Generation = 0, Population = 13.
*.........
..........
....*.....
....**....
..........
.........*
...*......
.....*....
*...*.*.*.
..........
..........
.....*....
..*.......
..........

Generation = 2, Population = 8.
..........
..........
....**....
....**....
..........
..........
..........
....**....
....**....
..........
..........
..........
..........
..........

Generation = 4, Population = 8.
..........
..........
....**....
....**....
..........
..........
..........
....**....
....**....
..........
..........
..........
..........
..........

*** Life<ConwayCell> 13x13 ***

Generation = 0, Population = 5.
.............
.............
..........*..
....*........
.............
.............
.*......*....
.............
.....*.......
.............
.............
.............
.............

Generation = 2, Population = 0.
.............
.............
.............
.............
.............
.............
.............
.............
.............
.............
.............
.............
.............

Generation = 4, Population = 0.
.............
.............
.............
.............
.............
.............
.............
.............
.............
.............
.............
.............
.............

Generation = 6, Population = 0.
.............
.............
.............
.............
.............
.............
.............
.............
.............
.............
.............
.............
.............

*** Life<ConwayCell> 8x10 ***

Generation = 0, Population = 9.
**.......*
.......*..
..*.......
..........
......*...
.....*....
**........
..........

Generation = 2, Population = 0.
..........
..........
..........
..........
..........
..........
..........
..........

Generation = 4, Population = 0.
..........
..........
..........
..........
..........
..........
..........
..........

Generation = 6, Population = 0.
..........
..........
..........
..........
..........
..........
..........
..........

*** Life<ConwayCell> 13x7 ***

Generation = 0, Population = 10.
.......
.*.....
.*.*...
..*....
*.**...
*......
.......
...*...
......*
.......
.......
.......
.......
