*** Life<Cell> 11x11 ***

Generation = 0, Population = 8.
-----------
---00---0--
-------0---
-----------
----------0
-----------
-----------
----0-0----
----0------
-----------
-----------

Generation = 2, Population = 27.
-------0---
-01--1----0
-----0---00
---00---0--
-------00-0
----0-0----
----1-----0
--0-*-0-0--
--0---1----
----1-0----
----0------

Generation = 4, Population = 28.
-------0--1
1-.*-.-1--*
---1-------
----*-0----
----0-0-0--
---1*---1--
----1--0---
0-*0.0--0-1
0---1---1-0
----.------
----*------

*** Life<Cell> 10x14 ***

Generation = 0, Population = 10.
------------0-
--------------
--00----------
----0---------
--0-----------
---0--------0-
-0------------
--------0-----
--------------
-----0--------

Generation = 2, Population = 37.
--00------0-0-
----0---------
01*-00------0-
--00--0-----0-
01001---------
-1--10--0-0---
--11----------
---0-00---0-0-
-0------------
---0-0-00-----

Generation = 4, Population = 31.
---*----0---0-
--00--------0-
*-.*--00----*-
0-*-----------
*.----1-----1-
-.---*-10---0-
-0.1-0--------
-----*------0-
--1-----------
-1-0----*1--0-

*** Life<Cell> 15x13 ***

Generation = 0, Population = 11.
-----0-------
0------------
-------------
-0--------0--
-------------
-----------0-
-------------
-------0-----
----00-------
-------------
-------------
-0-----------
-----0-------
-------0-----
-------------

Generation = 2, Population = 37.
---0-0-0-----
010-------0--
-----0-------
1--0----0--10
-------------
-0-----0-01--
----00-------
-----1---0-0-
--01--11-----
-0-----0-----
----0--------
---0---0-----
---0---1-----
-0---1---0---
-----0-------

Generation = 4, Population = 38.
-1-------0---
*-*-0------1-
-----0-------
-1---101---.*
----0--------
1------0--.1-
-------------
---1-.----00-
00-.-1*-11---
-------*---0-
-------------
-0---0-*-----
-1--11-.-1---
---1-.-1---0-
-----*-------

Generation = 6, Population = 84.
-1-0-0-0-0-1-
***-00-0-1--1
-1-00--1-0-1-
--1--1-*10-..
--0--01---01-
1100--10-1.-1
10--1-0-001--
11-11.1-10--1
*--.-..*..00-
-1----0*0-10-
0---0-000----
---1-*-*-1---
-.1-*-1.---1-
----0.11-----
-0-11.-1-0---

Generation = 8, Population = 85.
-*1-1*-----1-
*..00-000-1*1
-*0----1-00--
1-*--.1.10-*.
------1111-*0
1.--00*-1..--
*-01*00---*10
.10*1.*-10*--
**-.-.....0-0
11---10.--1--
--0--10-00---
-1-10.0.-11--
0*-**-.*0----
-1110.1-1----
---.-.-.-----

*** Life<Cell> 9x9 ***

Generation = 0, Population = 9.
0--------
-----0---
------0--
-0-------
----0-0--
------0--
--0------
---------
----0----

Generation = 1, Population = 25.
-0---0---
0---0----
-0-----0-
0-0-0----
-0-0--10-
--0-0010-
-0-0--0--
--0-0----
---0-0---

Generation = 2, Population = 22.
--0---0--
-0-0---0-
0-----0-0
---0-00--
----0---0
-0--1---0
0---0-1--
------0--
----0-0--

Generation = 3, Population = 33.
-----0---
--0-0-0--
------10-
0-0-01-0-
-0--1-101
--00-0101
---01-*00
0----0-0-
---0--10-

*** Life<Cell> 15x13 ***

Generation = 0, Population = 10.
-------0-----
-------0-0---
-------------
-------------
-------------
-------------
--0----------
-0-----------
-------------
----0-0------
--------0---0
-------------
-------------
----------0--
-------------

Generation = 1, Population = 30.
------0100---
------01--0--
-------0-0---
-------------
-------------
--0----------
---0---------
0------------
-0--0-0------
---0---00---0
----0-00-0-0-
--------0---0
----------0--
---------0-0-
----------0--

Generation = 2, Population = 34.
-----0-*-1---
-----0-*-0-0-
-------1-----
-------0-0---
--0----------
-0-----------
0---0--------
---00-0------
--0-----0---0
-00-0-0-1----
------1-----0
----0-0---0--
--------0---0
--------0---0
-------------

Generation = 3, Population = 68.
----01-.-*00-
----01-*-1--0
-----00-0--0-
--0---01--0--
---0---0-0---
----0--------
----100------
0--1---00---0
--1----010-0-
01----1-*0---
-00--0-00-00-
---0--1000-0-
----0-0010001
-------010-01
--------0---0

Generation = 4, Population = 38.
---0--0.0*-1-
---0-*0*0*-0-
--0----------
-0-----------
-------1-----
----1-00-0---
0-----1-0---0
-0---0-------
-------------
1-0-----.----
--1-0---1-1-0
-0-----------
-------------
----0-----0-*
--------1---1

Generation = 5, Population = 72.
--010-1.-*-*0
---1-*1.1*-10
-----00100-0-
0------1-----
-0--0--*00---
0--0----0-0-0
----1-*0---0-
--0-0---0---0
001--0-------
--100---.-0-0
0-*--0-0-----
0---0---0-0-0
-0--0-----0-1
---0-0--10--.
----0--0-000*

Generation = 6, Population = 83.
-01*11**-*-*-
---*0.*.-.-*-
0--00-1*1--1-
----00--0--0-
0-0--00*11--0
--0-1-0010-0-
0-0-*-.10---0
0-1-1-0--0---
1-*-0-0-1-0--
--*-10-0.0---
1-*-0--------
1-001-----1-1
--0-1-----1-*
-00---0-*-00*
------0-1---.

Generation = 7, Population = 92.
01-.*-**-.-.0
00-.1...1.0*0
-00-10-.-00-0
--0---01--01-
--100-1.--00-
-0--*0------0
1---*0.--0---
------1-0---0
*-*--010---0-
-1*-*11-*----
*-*0---0-01-0
*-1-*0---0*-*
0--0*00-10-0*
01-0001-.---*
-00--01-*000.

*** Life<Cell> 29x10 ***

Generation = 0, Population = 9.
----------
------0---
----------
----------
----------
----------
----------
-0--------
----------
----------
----------
---------0
----------
-0----0---
--------0-
----------
----------
0---------
----------
----------
----------
--0-------
----------
----------
----------
----------
----------
---------0
----------

Generation = 3, Population = 87.
----0---0-
---0-0-0-0
----0-0-0-
-----0-0--
-0----0---
0-0-------
-0-0------
--0-0-----
-0-0-----0
0-0-----0-
------00--
0-0--0110-
-0-00-0-10
--011000-1
00-000*000
110--0100-
-00---00-0
---0----0-
----------
---0------
--0-0-----
-0-0-0----
0-0-0-----
-0-0------
--0------0
--------0-
-------0--
------0---
-------0-0

*** Life<Cell> 12x10 ***

Generation = 0, Population = 10.
-0-0-----0
------0---
----------
---0------
--------0-
0------0--
----------
----------
----------
-------0--
----------
0---------

Generation = 2, Population = 27.
-----0-0--
---10---0-
-0-1----00
00---000--
------0---
0-00-0---0
--------0-
0---------
----------
0----0---0
----------
--0----0--

Generation = 4, Population = 29.
-0------0-
0-1---00--
-*-.-----*
-------*--
-1-10---01
--**0-00-0
----------
0--0------
--------0-
---0---0-0
----------
--0-0--0--

*** Life<Cell> 13x15 ***

Generation = 0, Population = 10.
----------0----
----------00---
0--0-----------
---------------
-------------0-
----0----------
---------------
---------------
---------------
---------------
---------------
-0-----------0-
-----0---------

Generation = 1, Population = 33.
---------01----
0--0-----0-10--
-00-0-----00---
0--0---------0-
----0-------0-0
---0-0-------0-
----0----------
---------------
---------------
---------------
-0-----------0-
0-0--0------0-0
-0--0-0------0-

*** Life<Cell> 10x10 ***

Generation = 0, Population = 11.
--00------
----------
------0---
----------
-----0----
---0-----0
0--------0
--0-------
----------
0-0-------

Generation = 1, Population = 32.
-0110-----
--00--0---
-----0-0--
-----00---
---00-0--0
0-0-00--01
-000----01
00-0-----0
0---------
---0------

Generation = 2, Population = 38.
01**100---
----------
--0001--0-
---0-----0
0--1--10-1
-01--1-0-*
0-1--0-0-*
--010----1
1--------0
0-0-0-----

Generation = 3, Population = 45.
1-**--10--
00----0-0-
-011-*00--
0----000-1
---*0-*---
01--0*0--*
-0---1-1-*
-0--1--00-
*0-0----01
1----0---0

Generation = 4, Population = 35.
*1*.10-1--
--0------0
0--*-.---0
--0-------
-00*--.---
1-1--.--0.
--1-0*0*0*
--0---0--1
*----0----
*--00-0--1

*** Life<Cell> 11x15 ***

Generation = 0, Population = 12.
-----------0---
-------------0-
-0------------0
---------------
------------0-0
--------0------
-0-0-----------
---------------
--0------------
------0--------
------------0--

Generation = 1, Population = 34.
----------0-00-
-0---------00--
0-0------------
-0----------0--
--------0--0---
-0-0---0-0--0-0
0---0---0------
-000-----------
-0-0--0--------
--0--0-0----0--
------0----0-0-

Generation = 2, Population = 35.
-0-------0-0-10
-----------1---
---0-------0---
--------0----0-
---0------0-0-0
------0---0----
-000-0------0-0
------0-0------
01-10-------0--
----0---0------
--0-------0-0-0

Generation = 3, Population = 70.
0-0-----0--1-*1
-0-0-----00-000
--0-0---0-0100-
-------0-000---
--0-0-0-001--0-
-00----0-010---
01-1--0-0-00---
0-0-0----0----0
1*-*-00----0-0-
000-10-0-00---0
-0-00---00-----

Generation = 4, Population = 36.
-0-----0----0.-
--------01-----
---0-0----1*1--
---------------
--1-----1-*00-0
----0-0-----00-
-----0-0----0-0
---------------
*.-.--1-------0
--1---0-0-1----
-101----1-----0
