*** Life<ConwayCell> 8x4 ***

Generation = 0, Population = 6.
..**
....
*..*
....
..*.
....
....
.*..

Generation = 1, Population = 2.
....
..**
....
....
....
....
....
....

Generation = 2, Population = 0.
....
....
....
....
....
....
....
....

Generation = 3, Population = 0.
....
....
....
....
....
....
....
....

Generation = 4, Population = 0.
....
....
....
....
....
....
....
....

Generation = 5, Population = 0.
....
....
....
....
....
....
....
....

*** Life<ConwayCell> 10x9 ***

Generation = 0, Population = 43.
.*......*
.*.*.*..*
*..******
.....*.**
.*.**.*..
*..***...
***.*..*.
****.....
**......*
**.**.***

Generation = 1, Population = 25.
..*......
**.*.*..*
..**.....
..*.....*
..**..**.
*.....*..
.....*...
...*.....
....*...*
***....**

Generation = 2, Population = 26.
.**......
.*.**....
...**....
.*.....*.
.***..**.
.....***.
.........
....*....
.***...**
.*.....**

Generation = 3, Population = 30.
.***.....
.*..*....
...**....
.*..*.**.
.**..*..*
..*..*.*.
.....**..
..**.....
.***...**
.*.....**

Generation = 4, Population = 40.
.***.....
.*..*....
..***....
.*..*.**.
.*****..*
.**.**.*.
..*****..
.*.**.**.
.*.*...**
.*.....**

Generation = 5, Population = 23.
.***.....
.*..*....
.**.*....
.*....**.
*.......*
.......*.
.........
.*......*
**.**....
..*....**

Generation = 6, Population = 27.
.***.....
*...*....
****.*...
***....*.
......*.*
.........
.........
***......
**.*...**
.***.....

Generation = 7, Population = 20.
.***.....
*...*....
...**....
*..*..**.
.*.....*.
.........
.*.......
*.*......
...*.....
**.*.....

Generation = 8, Population = 21.
.***.....
.*..*....
...***...
..***.**.
......**.
.........
.*.......
.**......
*..*.....
..*......

Generation = 9, Population = 18.
.***.....
.*...*...
......*..
..*....*.
...*.***.
.........
.**......
***......
...*.....
.........

Generation = 10, Population = 16.
.**......
.*.......
......*..
.....*.*.
......**.
..*...*..
*.*......
*..*.....
.**......
.........

*** Life<ConwayCell> 5x3 ***

Generation = 0, Population = 5.
.**
...
.*.
*..
*..

Generation = 1, Population = 4.
...
.**
...
**.
...

Generation = 2, Population = 2.
...
...
*.*
...
...

Generation = 3, Population = 0.
...
...
...
...
...

Generation = 4, Population = 0.
...
...
...
...
...

Generation = 5, Population = 0.
...
...
...
...
...

Generation = 6, Population = 0.
...
...
...
...
...

Generation = 7, Population = 0.
...
...
...
...
...

Generation = 8, Population = 0.
...
...
...
...
...

Generation = 9, Population = 0.
...
...
...
...
...

*** Life<ConwayCell> 7x10 ***

Generation = 0, Population = 40.
.***..***.
****.*****
*.***...*.
**....*..*
..*..*.*.*
*.*.*.**.*
.*.*..****

Generation = 2, Population = 17.
....**....
...*.*....
....*...*.
.*.....*..
..*....*.*
.........*
.*****....

Generation = 4, Population = 10.
....**....
...*.*....
....*.....
..........
..........
..*.*.....
..***.....

Generation = 6, Population = 5.
....**....
...*.*....
....*.....
..........
..........
..........
..........

*** Life<ConwayCell> 5x11 ***

Generation = 0, Population = 7.
...........
**..**.....
.....*..*..
..........*
...........

Generation = 2, Population = 4.
...........
....**.....
....**.....
...........
...........

Generation = 4, Population = 4.
...........
....**.....
....**.....
...........
...........

Generation = 6, Population = 4.
...........
....**.....
....**.....
...........
...........

Generation = 8, Population = 4.
...........
....**.....
....**.....
...........
...........

Generation = 10, Population = 4.
...........
....**.....
....**.....
...........
...........

Generation = 12, Population = 4.
...........
....**.....
....**.....
...........
...........

Generation = 14, Population = 4.
...........
....**.....
....**.....
...........
...........

*** Life<ConwayCell> 6x7 ***

Generation = 0, Population = 5.
.......
.**....
.......
.*.....
*....*.
.......

Generation = 1, Population = 2.
.......
.......
.**....
.......
.......
.......

Generation = 2, Population = 0.
.......
.......
.......
.......
.......
.......

Generation = 3, Population = 0.
.......
.......
.......
.......
.......
.......

Generation = 4, Population = 0.
.......
.......
.......
.......
.......
.......

Generation = 5, Population = 0.
.......
.......
.......
.......
.......
.......

Generation = 6, Population = 0.
.......
.......
.......
.......
.......
.......

Generation = 7, Population = 0.
.......
.......
.......
.......
.......
.......

*** Life<ConwayCell> 8x5 ***

Generation = 0, Population = 5.
..*..
..*..
.....
.*...
....*
.....
*....
.....

Generation = 1, Population = 0.
.....
.....
.....
.....
.....
.....
.....
.....

Generation = 2, Population = 0.
.....
.....
.....
.....
.....
.....
.....
.....

Generation = 3, Population = 0.
.....
.....
.....
.....
.....
.....
.....
.....

Generation = 4, Population = 0.
.....
.....
.....
.....
.....
.....
.....
.....

Generation = 5, Population = 0.
.....
.....
.....
.....
.....
.....
.....
.....

Generation = 6, Population = 0.
.....
.....
.....
.....
.....
.....
.....
.....

*** Life<ConwayCell> 9x3 ***

Generation = 0, Population = 7.
.*.
.*.
*..
...
..*
*..
.**
...
...

Generation = 2, Population = 0.
...
...
...
...
...
...
...
...
...

Generation = 4, Population = 0.
...
...
...
...
...
...
...
...
...

Generation = 6, Population = 0.
...
...
...
...
...
...
...
...
...

Generation = 8, Population = 0.
...
...
...
...
...
...
...
...
...
