10

8 8
10
2 2
5 0
3 5
6 3
4 3
5 3
3 4
7 0
4 1
3 3
1 2

1 4
10
0 1
0 0
0 0
0 0
0 3
0 0
0 3
0 3
0 3
0 0
3 2

5 3
10
2 2
3 2
3 1
1 1
3 0
3 0
3 2
2 1
3 0
4 2
6 1

8 3
10
3 1
1 0
3 2
2 1
5 1
2 0
0 2
0 1
1 0
4 0
8 1

6 4
10
1 3
2 2
5 1
5 0
2 0
3 1
0 2
1 2
3 0
4 1
6 2

7 9
10
5 8
3 3
6 0
6 3
5 2
2 6
1 3
0 4
2 3
0 8
3 2

3 7
10
1 1
0 1
2 0
0 4
1 4
2 6
1 2
1 3
2 2
1 0
7 1

2 4
10
0 2
0 0
1 0
0 1
1 3
0 2
0 3
0 1
1 1
1 0
6 2

5 4
10
4 3
2 3
2 0
1 0
1 2
0 0
0 0
4 2
4 0
3 2
8 1

8 1
10
6 0
5 0
2 0
7 0
0 0
0 0
5 0
2 0
3 0
3 0
2 2
