8

15 9
21
1 4
3 1
9 4
2 5
6 4
7 1
4 0
9 0
2 6
10 1
7 2
10 2
14 3
10 7
7 1
4 4
9 0
11 2
12 3
4 2
9 3
235 164

11 13
18
3 11
7 1
3 5
10 9
0 1
4 3
3 8
1 8
6 12
9 8
6 5
6 8
9 2
3 0
8 5
7 11
10 8
4 5
679 157

7 6
18
5 0
1 2
5 3
4 0
3 2
4 3
4 0
1 0
2 5
1 1
4 3
0 5
4 4
5 3
6 5
1 3
5 5
0 4
366 89

11 9
16
3 0
3 6
9 4
10 5
10 5
7 4
0 2
2 0
6 0
4 2
4 6
9 3
9 6
1 6
7 1
1 6
470 192

14 8
14
2 5
3 6
13 1
12 0
6 2
9 3
7 6
11 3
13 5
9 6
11 0
5 7
0 3
3 1
409 77

7 5
26
2 3
3 0
5 0
4 0
4 2
5 2
6 0
5 3
4 1
2 4
5 3
0 4
1 3
5 3
2 4
6 4
0 3
0 3
6 0
3 2
6 0
6 2
2 4
0 0
0 1
6 4
437 86

14 5
12
3 3
7 4
4 3
1 0
0 1
6 4
13 0
5 4
1 2
1 4
10 3
13 4
546 184

5 10
19
3 8
0 7
3 3
4 2
3 5
3 0
0 2
4 3
1 3
0 2
3 9
2 5
4 3
1 3
4 3
2 6
4 4
2 7
4 7
300 5
