8

5 5
10
1 4
4 4
0 3
3 0
3 2
1 2
4 0
2 2
2 3
0 0
10 1

5 5
10
3 4
1 0
0 4
0 3
4 2
1 4
3 1
0 2
4 3
2 2
10 1

1 10
8
0 2
0 4
0 6
0 1
0 5
0 3
0 9
0 0
10 1

10 1
8
3 0
4 0
6 0
9 0
0 0
8 0
1 0
5 0
10 1

10 10
20
3 2
0 4
5 1
0 1
2 9
6 5
7 4
1 6
9 4
2 4
9 1
3 8
7 7
0 7
8 8
4 4
2 1
4 8
7 9
1 0
40 1

10 10
20
3 4
4 4
4 1
9 3
5 1
0 5
7 1
1 6
0 2
9 1
0 8
0 0
5 6
2 3
9 4
5 4
6 6
6 1
5 8
1 4
40 1

10 10
45
4 6
0 3
2 4
8 5
2 1
5 4
3 1
5 3
6 5
9 5
4 0
7 4
9 6
4 8
0 0
6 3
3 7
7 9
8 1
0 5
6 1
2 7
6 7
9 1
1 5
3 9
5 1
1 1
8 8
6 2
7 3
1 4
9 4
9 2
6 0
7 2
1 7
5 9
2 6
0 7
1 6
3 0
2 2
6 6
8 0
100 14

10 10
45
9 7
6 4
5 2
5 4
2 1
4 4
7 6
3 1
1 7
6 3
0 7
3 3
9 0
6 1
5 1
2 4
9 6
8 1
0 6
8 7
1 2
4 6
3 5
9 9
8 4
9 4
1 5
5 5
3 9
1 3
4 7
7 0
1 6
2 7
4 5
7 5
4 3
5 7
1 4
9 3
8 6
8 5
8 2
6 9
1 1
100 14
