*** Life<ConwayCell> 9x5 ***

Generation = 0, Population = 11.
.....
..*..
**..*
...*.
*.*..
..*..
*....
.....
*..*.

Generation = 2, Population = 8.
.....
.*...
*..*.
*...*
.*.*.
..*..
.....
.....
.....

Generation = 4, Population = 8.
.....
.....
*..*.
....*
*...*
.***.
.....
.....
.....

Generation = 6, Population = 8.
.....
.....
.....
..***
.*..*
.....
.***.
.....
.....

*** Life<ConwayCell> 8x9 ***

Generation = 0, Population = 8.
.....*.*.
.........
.........
..*..**.*
.........
.........
.*.....*.
.........

Generation = 2, Population = 0.
.........
.........
.........
.........
.........
.........
.........
.........

*** Life<ConwayCell> 6x7 ***

Generation = 0, Population = 13.
......*
...*...
***...*
*....*.
*...*..
*.*...*

Generation = 1, Population = 10.
.......
.**....
***....
*....*.
*....*.
.*.....

Generation = 2, Population = 7.
.......
*.*....
*.*....
*......
**.....
.......

Generation = 3, Population = 4.
.......
.......
*......
*......
**.....
.......

*** Life<ConwayCell> 9x8 ***

Generation = 0, Population = 19.
.*...*..
*..*.*..
....*...
...**...
..**....
*..*...*
*....*..
*.......
..*..**.

Generation = 1, Population = 15.
....*...
.....*..
.....*..
..*.*...
..*.....
.****...
**......
.*...**.
........

*** Life<ConwayCell> 6x5 ***

Generation = 0, Population = 7.
...**
.*...
..*..
....*
.....
.*.*.

Generation = 2, Population = 0.
.....
.....
.....
.....
.....
.....

Generation = 4, Population = 0.
.....
.....
.....
.....
.....
.....

Generation = 6, Population = 0.
.....
.....
.....
.....
.....
.....

Generation = 8, Population = 0.
.....
.....
.....
.....
.....
.....

*** Life<ConwayCell> 5x6 ***

Generation = 0, Population = 9.
..*...
*...*.
*.*..*
...*..
..**..

Generation = 1, Population = 9.
......
...*..
.*.**.
.*.**.
..**..

Generation = 2, Population = 7.
......
..***.
......
.*....
..***.

Generation = 3, Population = 8.
...*..
...*..
..**..
..**..
..**..

Generation = 4, Population = 7.
......
...**.
....*.
.*..*.
..**..

Generation = 5, Population = 8.
......
...**.
....**
..*.*.
..**..

Generation = 6, Population = 9.
......
...***
.....*
..*.**
..**..

*** Life<ConwayCell> 9x10 ***

Generation = 0, Population = 17.
..........
*....**.*.
*..*.*....
..........
...*...**.
..*..****.
..........
.......*..
....*.....

Generation = 1, Population = 11.
..........
....***...
....***...
....*.....
........*.
......*.*.
........*.
..........
..........

Generation = 2, Population = 10.
.....*....
....*.*...
...*..*...
....*.....
.......*..
........**
.......*..
..........
..........

Generation = 3, Population = 9.
.....*....
....*.*...
...**.....
..........
........*.
.......**.
........*.
..........
..........

Generation = 4, Population = 13.
.....*....
...**.....
...***....
..........
.......**.
.......***
.......**.
..........
..........

Generation = 5, Population = 11.
....*.....
...*......
...*.*....
....*.....
.......*.*
......*..*
.......*.*
..........
..........

*** Life<ConwayCell> 7x5 ***

Generation = 0, Population = 15.
***..
***..
..*..
...*.
**.*.
.*.**
*....

Generation = 1, Population = 14.
*.*..
*..*.
..**.
.*.*.
**.*.
.*.**
.....
